<svg width="19" height="27" viewBox="0 0 19 27" fill="none" xmlns="http://www.w3.org/2000/svg">
<path d="M14.2536 14.0124C14.8365 14.0131 15.3097 13.566 15.3104 13.0137C15.3111 12.4614 14.8391 12.0131 14.2562 12.0124L4.57694 12.0011C3.99397 12.0004 3.5208 12.4475 3.52008 12.9998C3.51936 13.5521 3.99136 14.0004 4.57432 14.0011L14.2536 14.0124Z" fill="white"/>
<path d="M10.3777 18.0085C10.9607 18.0092 11.4338 17.562 11.4346 17.0098C11.4353 16.4575 10.9633 16.0092 10.3803 16.0085L4.57731 16.0017C3.99435 16.001 3.52117 16.4482 3.52045 17.0005C3.51973 17.5527 3.99173 18.001 4.5747 18.0017L10.3777 18.0085Z" fill="white"/>
<path fill-rule="evenodd" clip-rule="evenodd" d="M4.75 3.00003C4.75 1.34316 6.16778 0 7.91669 0H11.0833C12.8322 0 14.25 1.34316 14.25 3.00002L17.4167 3C18.2911 3 19 3.67158 19 4.50001V25.5C19 26.3284 18.2911 27 17.4167 27H1.58335C0.70889 27 0 26.3284 0 25.5V4.50001C0 3.67158 0.708888 3 1.58335 3L4.75 3.00003ZM7.91669 2H11.0833C11.6663 2 12.1389 2.44773 12.1389 3.00002V4H6.86111V3.00003C6.86111 2.44773 7.33371 2 7.91669 2ZM4.75 5H2.11111V25H16.8889V5H14.25V6H4.75V5Z" fill="white"/>
</svg>
