<svg width="19" height="22" viewBox="0 0 19 22" fill="none" xmlns="http://www.w3.org/2000/svg">
<circle cx="9.49994" cy="7.03216" r="5.60333" stroke="#FFF" stroke-width="1.26" stroke-linecap="round"/>
<path d="M18 21.1992C18 16.5048 14.1944 12.6992 9.5 12.6992C4.80558 12.6992 1 16.5048 1 21.1992" stroke="#FFF" stroke-width="1.26" stroke-linecap="round"/>
</svg>
