<svg width="16" height="24" viewBox="0 0 16 24" fill="none" xmlns="http://www.w3.org/2000/svg">
<rect x="0.676471" y="8.67647" width="14.6471" height="14.6471" rx="2.70588" stroke="white" stroke-width="1.35294"/>
<path d="M3 9V6C3 3.23858 5.23858 1 8 1V1C10.7614 1 13 3.23858 13 6V9" stroke="white" stroke-width="1.35294"/>
<circle cx="8" cy="16" r="2.5" stroke="white"/>
</svg>
